DateLastModified:  03/03/99 09:06:35 AM
LastName:  360 Degree Support

JobTitle:  ASSOC TECH MKTG SUPPT SPCL ADV
CompanyName:  CRM
Location:  Indianapolis
Manager:  R CUNNINGHAM
Region:  MW
DateLastModified:  07/14/98 06:38:16 AM
FirstName:  A Lee
LastName:  Clifford

DateLastModified:  04/26/99 10:09:25 AM
JobTitle:  Web Design Administrator,(Ministry of Truth)
StreetAddress:  6201 Sneed Cove Apt 1430
City:  Austin
State:  TX
Location:  Austin - BP 5 - 52007
Zip:  78744
Manager:  Don Older
OfficePhoneNumber:  888-436-9451
PhoneNumber:  888-326-9478
FirstName:  Aaron
LastName:  Borsch

JobTitle:  DEPARTMENT TECHNICIAN
Location:  STONELAKE
Manager:  GSKLOC
OfficePhoneNumber:  888-436-9320
PhoneNumber:  448-0705
PagerNumber:  171-6846
DateLastModified:  02/09/99 03:04:18 PM
FirstName:  Aaron
LastName:  Clown

JobTitle:  CO-OP PRE-PROF - OTHER
Location:  Austin - Arboretum Deal
Manager:  WBERICSON
OfficePhoneNumber:  888-436-8178
Comment:  Dev Intern EXP - 12/31/1999
DateLastModified:  04/02/99 10:23:58 AM
FirstName:  Aaron
LastName:  Eagle

DateLastModified:  08/25/98 01:50:33 PM
JobTitle:  I/T ARCHITECT-NETWORKING
StreetAddress:  71 La Cabeza Drive
City:  Dallas
State:  Texas
Location:  Dallas
Zip:  75248-3126
Manager:  JGSAKR
OfficePhoneNumber:  888-239-1871
PhoneNumber:  888-239-1871
OfficeFAXPhoneNumber:  888-239-9804
HomeFAXPhoneNumber:  888-239-9804
CellPhoneNumber:  888-924-8225
Region:  SC
PagerNumber:  888-698-7221
Comment:  Are we there yet?
FirstName:  Aaron
LastName:  Smith

DateLastModified:  10/28/98 03:11:41 PM
JobTitle:  HOLDING CODE - OUT SALES / SE
Location:  Austin - Arboretum Deal
Manager:  GARICE
OfficePhoneNumber:  888-436-1628
OfficeFAXPhoneNumber:  888-436-1191
Region:  SC
PagerNumber:  888-371-4390
FirstName:  Aaron
LastName:  Tool

JobTitle:  TIVOLI SR S/W ENG/WRITER
Location:  RTP
Manager:  GDOSBORNE
OfficePhoneNumber:  919-254-8774
OfficeFAXPhoneNumber:  919-254-6518
Region:  East
Comment:  Dev
DateLastModified:  10/14/98 01:42:20 PM
FirstName:  Aaron
LastName:  Older

PhoneNumber_6:  800-209-2862
JobTitle:  I/T SPCL - SYS MGMT - ADV
Location:  Austin - II Bridgepoint - 62016
Manager:  TKFEROSE
OfficePhoneNumber:  888-436-8608
OfficeFAXPhoneNumber:  888-436-8166
PagerNumber:  800-309-2862
Comment:  Deployment Engr
DateLastModified:  04/07/99 10:59:17 AM
FirstName:  Abdul
LastName:  Yoojustcant

Location:  Beijing
OfficePhoneNumber:  86-10-6437-1234-5678
DateLastModified:  03/30/99 09:35:11 AM
country:  China
FirstName:  Xiang
LastName:  Zhou

